This is BibTeX, Version 0.99d (TeX Live 2014)
Capacity: max_strings=35307, hash_size=35307, hash_prime=30011
The top-level auxiliary file: egpaper_for_review.aux
The style file: ieee.bst
Database file #1: egbib.bib
Warning--empty publisher in wheeler1995iterative
You've used 26 entries,
            2120 wiz_defined-function locations,
            641 strings with 8623 characters,
and the built_in function-call counts, 11135 in all, are:
= -- 1131
> -- 524
< -- 16
+ -- 210
- -- 180
* -- 723
:= -- 1720
add.period$ -- 92
call.type$ -- 26
change.case$ -- 164
chr.to.int$ -- 0
cite$ -- 27
duplicate$ -- 472
empty$ -- 865
format.name$ -- 180
if$ -- 2459
int.to.chr$ -- 0
int.to.str$ -- 26
missing$ -- 27
newline$ -- 133
num.names$ -- 52
pop$ -- 225
preamble$ -- 1
purify$ -- 140
quote$ -- 0
skip$ -- 350
stack$ -- 0
substring$ -- 681
swap$ -- 169
text.length$ -- 16
text.prefix$ -- 0
top$ -- 0
type$ -- 100
warning$ -- 1
while$ -- 103
width$ -- 28
write$ -- 294
(There was 1 warning)
