\relax 
\providecommand\hyper@newdestlabel[2]{}
\providecommand\HyperFirstAtBeginDocument{\AtBeginDocument}
\HyperFirstAtBeginDocument{\ifx\hyper@anchor\@undefined
\global\let\oldcontentsline\contentsline
\gdef\contentsline#1#2#3#4{\oldcontentsline{#1}{#2}{#3}}
\global\let\oldnewlabel\newlabel
\gdef\newlabel#1#2{\newlabelxx{#1}#2}
\gdef\newlabelxx#1#2#3#4#5#6{\oldnewlabel{#1}{{#2}{#3}}}
\AtEndDocument{\ifx\hyper@anchor\@undefined
\let\contentsline\oldcontentsline
\let\newlabel\oldnewlabel
\fi}
\fi}
\global\let\hyper@last\relax 
\gdef\HyperFirstAtBeginDocument#1{#1}
\providecommand\HyField@AuxAddToFields[1]{}
\providecommand\HyField@AuxAddToCoFields[2]{}
\citation{fritsch2013new}
\citation{scharstein2014high}
\citation{austvoll2005study}
\citation{butler2012naturalistic}
\citation{Geiger2013IJRR}
\citation{geiger2012we}
\@writefile{toc}{\contentsline {section}{\numberline {1}\hskip -1em.\nobreakspace  {}Introduction}{1}{section.1}}
\@writefile{brf}{\backcite{fritsch2013new, scharstein2014high}{{1}{1}{section.1}}}
\@writefile{brf}{\backcite{austvoll2005study}{{1}{1}{section.1}}}
\@writefile{brf}{\backcite{butler2012naturalistic}{{1}{1}{section.1}}}
\@writefile{brf}{\backcite{Geiger2013IJRR, geiger2012we}{{1}{1}{section.1}}}
\@writefile{lof}{\contentsline {figure}{\numberline {1}{\ignorespaces Direct lidar evaluation of stereo. Top left: one image of a stereo pair given as input to the stereo algorithm. Top right: the disparity map computed with the stereo algorithm. Bottom left: reconstructed 3D scene geometry with triangular mesh. Bottom right: the result of lidar prediction acquired by intersecting each lidar ray with the 3D shapes. Different colors encode different accuracy --- the red points are where the lidar predictions have a large discrepancy comparing with the ground truth.\relax }}{1}{figure.caption.1}}
\providecommand*\caption@xref[2]{\@setref\relax\@undefined{#1}}
\newlabel{fig:kitti_error}{{1}{1}{Direct lidar evaluation of stereo. Top left: one image of a stereo pair given as input to the stereo algorithm. Top right: the disparity map computed with the stereo algorithm. Bottom left: reconstructed 3D scene geometry with triangular mesh. Bottom right: the result of lidar prediction acquired by intersecting each lidar ray with the 3D shapes. Different colors encode different accuracy --- the red points are where the lidar predictions have a large discrepancy comparing with the ground truth.\relax }{figure.caption.1}{}}
\citation{geiger2012automatic}
\citation{levinson2013automtic}
\citation{vzbontar2014computing}
\@writefile{lof}{\contentsline {figure}{\numberline {2}{\ignorespaces Visualization of a stereo pair and corresponding lidar file. \textbf  {Top:} the stereo pair. Images are monochrome and have resolution of $1600 \times 848$. The zoom-in shows the viewpoint difference between the left and right camera. \textbf  {Bottom:} visualization of the lidar file. The lidar takes a full panoramic scan of 145, 927 lidar points. Zoom in shows the lidar points of the moving cars.\relax }}{2}{figure.caption.2}}
\newlabel{fig:intro}{{2}{2}{Visualization of a stereo pair and corresponding lidar file. \textbf {Top:} the stereo pair. Images are monochrome and have resolution of $1600 \times 848$. The zoom-in shows the viewpoint difference between the left and right camera. \textbf {Bottom:} visualization of the lidar file. The lidar takes a full panoramic scan of 145, 927 lidar points. Zoom in shows the lidar points of the moving cars.\relax }{figure.caption.2}{}}
\@writefile{brf}{\backcite{geiger2012automatic, levinson2013automtic}{{2}{1}{figure.caption.2}}}
\@writefile{brf}{\backcite{vzbontar2014computing}{{2}{1}{figure.caption.2}}}
\@writefile{toc}{\contentsline {section}{\numberline {2}\hskip -1em.\nobreakspace  {}Notation and Scoring}{2}{section.2}}
\newlabel{eq:threshold}{{1}{2}{\hskip -1em.~Notation and Scoring}{equation.2.1}{}}
\citation{yamaguchi2014efficient}
\citation{yamaguchi2013robust}
\@writefile{toc}{\contentsline {section}{\numberline {3}\hskip -1em.\nobreakspace  {}Evaluation Methodology}{3}{section.3}}
\@writefile{toc}{\contentsline {subsection}{\numberline {3.1}\hskip -1em.\nobreakspace  {}The Development Kit}{3}{subsection.3.1}}
\@writefile{brf}{\backcite{yamaguchi2014efficient}{{3}{3.1}{subsection.3.1}}}
\@writefile{brf}{\backcite{yamaguchi2013robust}{{3}{3.1}{subsection.3.1}}}
\citation{yamaguchi2014efficient}
\citation{wheeler1995iterative}
\citation{besl1992method}
\citation{Levinson-RSS-07}
\citation{urmson2008autonomous}
\citation{Geiger2013IJRR}
\citation{Velodyne_manual}
\newlabel{fig:occlude}{{\caption@xref {fig:occlude}{ on input line 187}}{4}{\hskip -1em.~The Development Kit}{figure.caption.3}{}}
\newlabel{sub@fig:occlude}{{}{4}{\hskip -1em.~The Development Kit}{figure.caption.3}{}}
\@writefile{lof}{\contentsline {figure}{\numberline {3}{\ignorespaces The lidar ray tracing model. \textbf  {Left:} the lidar ray terminates at point $P$ where it hits the slanted disparity plane $p_2$ occluded by $p_1$. The ray is then assigned to plane $p_2$. \textbf  {Right:} the corresponding trajectory of the lidar ray on image, where the ray hits the car in the back (invisible to camera). Each segment on image represents a slanted disparity plane.\relax }}{4}{figure.caption.3}}
\newlabel{fig:occlusion}{{3}{4}{The lidar ray tracing model. \textbf {Left:} the lidar ray terminates at point $P$ where it hits the slanted disparity plane $p_2$ occluded by $p_1$. The ray is then assigned to plane $p_2$. \textbf {Right:} the corresponding trajectory of the lidar ray on image, where the ray hits the car in the back (invisible to camera). Each segment on image represents a slanted disparity plane.\relax }{figure.caption.3}{}}
\@writefile{brf}{\backcite{yamaguchi2014efficient}{{4}{3.1}{figure.caption.3}}}
\@writefile{brf}{\backcite{wheeler1995iterative}{{4}{3.1}{figure.caption.3}}}
\@writefile{brf}{\backcite{besl1992method}{{4}{3.1}{figure.caption.3}}}
\@writefile{toc}{\contentsline {subsection}{\numberline {3.2}\hskip -1em.\nobreakspace  {}Predicting Lidar Distance From Stereo and Optical Flow}{4}{subsection.3.2}}
\@writefile{lof}{\contentsline {figure}{\numberline {4}{\ignorespaces Test vehicle used for data collection. The Velodyne HDL-64E Lidar and stereo camera setup are mounted on the roof rack. Details of the sensors are in the text.\relax }}{4}{figure.caption.4}}
\newlabel{fig:test_vehicle}{{4}{4}{Test vehicle used for data collection. The Velodyne HDL-64E Lidar and stereo camera setup are mounted on the roof rack. Details of the sensors are in the text.\relax }{figure.caption.4}{}}
\@writefile{toc}{\contentsline {section}{\numberline {4}\hskip -1em.\nobreakspace  {}Data Collection}{4}{section.4}}
\@writefile{brf}{\backcite{Levinson-RSS-07, urmson2008autonomous, Geiger2013IJRR}{{4}{4}{figure.caption.4}}}
\@writefile{brf}{\backcite{Velodyne_manual}{{4}{4}{figure.caption.4}}}
\citation{yamaguchi2014efficient}
\citation{spangenberg2014large}
\citation{bradski2000opencv}
\citation{hirschmuller2008stereo}
\citation{geiger2011efficient}
\citation{cech2007efficient}
\citation{zhang2014cross}
\citation{weinzaepfel2013deepflow}
\citation{spangenberg2014large}
\citation{bradski2000opencv}
\@writefile{lof}{\contentsline {figure}{\numberline {5}{\ignorespaces The best and worst performed images of SPS-ST. Images are converted to 3D planes and visualized with lidar points mapped on top. The color of lidar points shows whether the algorithm correctly predicts the flight time of the lidar ray, where red means ``correct predict'' and blue means ``wrong predict''.\relax }}{5}{figure.caption.7}}
\newlabel{fig:best_worst}{{5}{5}{The best and worst performed images of SPS-ST. Images are converted to 3D planes and visualized with lidar points mapped on top. The color of lidar points shows whether the algorithm correctly predicts the flight time of the lidar ray, where red means ``correct predict'' and blue means ``wrong predict''.\relax }{figure.caption.7}{}}
\@writefile{toc}{\contentsline {section}{\numberline {5}\hskip -1em.\nobreakspace  {}Results}{5}{section.5}}
\@writefile{lof}{\contentsline {figure}{\numberline {6}{\ignorespaces Above: a test case of optical flow with a car moving forward relative to the camera. Wrong predictions are visualized in colors green and blue: green points are where the actual pulse has longer flight time than prediction, while the blue points are where actual lidar flight time is shorter. We can see that Classic++ successfully captures the forward motion of the car where SPS-FL fails. Below: the 3-pixel error rate of optical flow algorithms. The depth for the optical flow converter is based on the result of SPS-ST.\relax }}{5}{figure.caption.8}}
\newlabel{fig:flow_error}{{6}{5}{Above: a test case of optical flow with a car moving forward relative to the camera. Wrong predictions are visualized in colors green and blue: green points are where the actual pulse has longer flight time than prediction, while the blue points are where actual lidar flight time is shorter. We can see that Classic++ successfully captures the forward motion of the car where SPS-FL fails. Below: the 3-pixel error rate of optical flow algorithms. The depth for the optical flow converter is based on the result of SPS-ST.\relax }{figure.caption.8}{}}
\citation{rabe2010dense}
\citation{vogel2014view}
\citation{wedel2008efficient}
\citation{yamaguchi2014efficient}
\citation{yamaguchi2014efficient}
\citation{cech2007efficient}
\citation{cech2007efficient}
\citation{bradski2000opencv}
\citation{bradski2000opencv}
\citation{weinzaepfel2013deepflow}
\citation{weinzaepfel2013deepflow}
\bibstyle{ieee}
\bibdata{egbib}
\bibcite{austvoll2005study}{1}
\bibcite{besl1992method}{2}
\bibcite{bradski2000opencv}{3}
\bibcite{butler2012naturalistic}{4}
\bibcite{cech2007efficient}{5}
\bibcite{fritsch2013new}{6}
\bibcite{Geiger2013IJRR}{7}
\bibcite{geiger2012we}{8}
\bibcite{geiger2012automatic}{9}
\bibcite{geiger2011efficient}{10}
\bibcite{hirschmuller2008stereo}{11}
\bibcite{Levinson-RSS-07}{12}
\bibcite{levinson2013automtic}{13}
\bibcite{rabe2010dense}{14}
\@writefile{brf}{\backcite{yamaguchi2014efficient}{{6}{\caption@xref {??}{ on input line 257}}{table.caption.5}}}
\@writefile{brf}{\backcite{spangenberg2014large}{{6}{\caption@xref {??}{ on input line 257}}{table.caption.5}}}
\@writefile{brf}{\backcite{bradski2000opencv}{{6}{\caption@xref {??}{ on input line 257}}{table.caption.5}}}
\@writefile{brf}{\backcite{hirschmuller2008stereo}{{6}{\caption@xref {??}{ on input line 257}}{table.caption.5}}}
\@writefile{brf}{\backcite{geiger2011efficient}{{6}{\caption@xref {??}{ on input line 257}}{table.caption.5}}}
\@writefile{brf}{\backcite{cech2007efficient}{{6}{\caption@xref {??}{ on input line 257}}{table.caption.5}}}
\@writefile{brf}{\backcite{zhang2014cross}{{6}{\caption@xref {??}{ on input line 257}}{table.caption.5}}}
\@writefile{lot}{\contentsline {table}{\numberline {1}{\ignorespaces 3-pixel error rate of stereo algorithms using different conversions and their error rate in KITTI.\relax }}{6}{table.caption.5}}
\newlabel{tb:stereo}{{1}{6}{3-pixel error rate of stereo algorithms using different conversions and their error rate in KITTI.\relax }{table.caption.5}{}}
\@writefile{brf}{\backcite{weinzaepfel2013deepflow}{{6}{\caption@xref {??}{ on input line 275}}{table.caption.6}}}
\@writefile{brf}{\backcite{spangenberg2014large}{{6}{\caption@xref {??}{ on input line 275}}{table.caption.6}}}
\@writefile{brf}{\backcite{bradski2000opencv}{{6}{\caption@xref {??}{ on input line 275}}{table.caption.6}}}
\@writefile{lot}{\contentsline {table}{\numberline {2}{\ignorespaces 3-pixel error rate of flow algorithms using different conversions and their error rate in KITTI.\relax }}{6}{table.caption.6}}
\newlabel{tb:flow}{{2}{6}{3-pixel error rate of flow algorithms using different conversions and their error rate in KITTI.\relax }{table.caption.6}{}}
\@writefile{toc}{\contentsline {section}{\numberline {6}\hskip -1em.\nobreakspace  {}Conclusion and Future Work}{6}{section.6}}
\@writefile{brf}{\backcite{rabe2010dense, vogel2014view, wedel2008efficient}{{6}{6}{section.6}}}
\bibcite{scharstein2014high}{15}
\bibcite{spangenberg2014large}{16}
\bibcite{urmson2008autonomous}{17}
\bibcite{Velodyne_manual}{18}
\bibcite{vogel2014view}{19}
\bibcite{wedel2008efficient}{20}
\bibcite{weinzaepfel2013deepflow}{21}
\bibcite{wheeler1995iterative}{22}
\bibcite{yamaguchi2013robust}{23}
\bibcite{yamaguchi2014efficient}{24}
\bibcite{vzbontar2014computing}{25}
\bibcite{zhang2014cross}{26}
\@writefile{brf}{\backcite{yamaguchi2014efficient}{{7}{7a}{figure.caption.9}}}
\@writefile{brf}{\backcite{cech2007efficient}{{7}{7b}{figure.caption.9}}}
\@writefile{brf}{\backcite{bradski2000opencv}{{7}{7c}{figure.caption.9}}}
\@writefile{brf}{\backcite{weinzaepfel2013deepflow}{{7}{7d}{figure.caption.9}}}
\@writefile{lof}{\contentsline {figure}{\numberline {7}{\ignorespaces Stereo and flow result visualization.\relax }}{7}{figure.caption.9}}
\newlabel{fig:more}{{\caption@xref {fig:more}{ on input line 366}}{7}{\hskip -1em.~Conclusion and Future Work}{figure.caption.9}{}}
